{
  "nombre":"solamente",
  "descripcion":"nueva descripcion",
  "precio": 345.00,
  "fotos": [
    {
      "nombre":"foto nombre",
      "tipo":"image/png",
      "data": "data"
    },
    {
      "nombre":"foto nombre",
      "tipo":"image/png",
      "data": "data"
    },
    {
      "nombre":"foto nombre",
      "tipo":"image/png",
      "data": "data"
    },
    {
      "nombre":"foto nombre",
      "tipo":"image/png",
      "data": "data"
    }
  ]
}
